<svg width="36" height="36" viewBox="0 0 36 36" fill="none" xmlns="http://www.w3.org/2000/svg">
<path fill-rule="evenodd" clip-rule="evenodd" d="M33.8893 6.15546H30.1594V2.42562C30.1594 1.42853 29.347 0.616089 28.3499 0.616089H28.2945C27.279 0.616089 26.4665 1.42853 26.4665 2.42562V6.15546H22.7551C21.7581 6.15546 20.9456 6.9679 20.9272 7.96499V8.02038C20.9272 9.03593 21.7396 9.84837 22.7551 9.84837H26.4665V13.5598C26.4665 14.5568 27.279 15.3877 28.2945 15.3693H28.3499C29.347 15.3693 30.1594 14.5568 30.1594 13.5598V9.84837H33.8893C34.8864 9.84837 35.6988 9.03593 35.6988 8.03885V7.96499C35.6988 6.9679 34.8864 6.15546 33.8893 6.15546ZM24.6201 13.5598V11.6948H22.7552C21.7765 11.6948 20.8533 11.3071 20.1517 10.6239C19.4685 9.92223 19.0807 8.999 19.0807 7.96499C19.0807 7.30026 19.2654 6.69093 19.5793 6.15546H4.30906C2.27796 6.15546 0.61615 7.81727 0.61615 9.84837V32.0059C0.61615 34.037 2.27796 35.6988 4.30906 35.6988H26.4665C28.4976 35.6988 30.1595 34.037 30.1595 32.0059V16.7172C29.6055 17.0311 28.9777 17.2342 28.2761 17.2342C26.2634 17.2157 24.6201 15.5724 24.6201 13.5598ZM6.15547 32.0058H24.5462C25.3217 32.0058 25.7464 31.1195 25.2663 30.5102L19.8193 23.7152C19.45 23.2352 18.7298 23.2536 18.3606 23.7337L13.5413 30.1594L10.587 25.7094C10.2177 25.1924 9.46063 25.1555 9.07287 25.6725L5.41689 30.5287C4.95528 31.138 5.39842 32.0058 6.15547 32.0058Z" fill="#9E9E9E"/>
</svg>
